21

8 2
14
f 4 0 e
r 7 0 e
r 4 1 s
t 7 0 w
r 4 1 s
r 6 1 s
f 5 1 n
r 3 0 n
t 6 1 n
h 1 1 e
h 7 1 n
r 6 1 s
f 5 0 s
f 3 0 n
3 1

5 6
6
f 2 4 n
h 3 0 w
r 0 5 e
h 4 1 e
h 4 0 w
h 1 0 e
3 3

4 6
13
r 2 2 e
r 1 1 n
t 1 2 n
f 0 4 w
h 3 5 s
f 3 3 e
t 1 5 w
f 0 3 e
h 0 0 s
h 0 5 s
h 1 0 e
r 0 4 s
r 0 2 w
18 14

8 2
8
h 6 0 n
t 7 1 s
r 6 0 n
t 6 0 n
h 0 0 n
h 4 0 w
h 1 0 w
h 3 0 e
12 6

4 5
10
t 2 0 n
h 2 1 s
r 0 2 n
h 2 2 e
r 3 3 s
h 2 0 w
t 0 0 s
h 3 1 e
f 2 2 n
h 2 3 n
15 4

8 8
7
h 0 6 n
r 5 3 s
t 2 6 e
t 1 2 n
r 2 2 e
f 0 7 n
h 6 7 e
18 5

7 3
5
r 6 1 e
f 0 1 n
h 2 2 w
h 2 0 e
t 2 0 e
3 1

2 2
16
f 1 0 w
r 0 1 n
f 1 1 e
f 0 0 w
t 0 1 s
r 0 1 s
t 0 1 w
f 0 1 n
f 1 0 w
r 1 0 e
t 0 0 s
r 0 0 w
r 0 1 s
r 1 0 e
r 0 1 n
f 0 1 e
20 7

8 7
3
r 7 5 s
h 6 5 s
f 7 0 w
9 6

5 8
11
r 1 2 e
h 1 6 w
t 3 4 s
r 2 5 s
t 1 3 s
t 2 1 s
h 3 0 e
t 4 6 n
r 2 1 e
f 0 1 e
f 3 3 n
18 12

4 7
7
h 2 6 e
h 1 4 e
h 1 6 n
h 0 6 n
t 3 0 s
h 3 0 n
t 0 2 n
14 4

6 7
7
r 2 5 n
f 5 3 e
f 4 6 n
t 0 6 s
r 4 3 n
f 4 0 e
f 3 2 w
10 5

8 5
7
r 4 1 s
f 6 4 n
f 4 0 s
f 0 3 n
h 0 2 w
t 2 0 w
r 5 4 w
6 5

2 6
9
h 1 1 e
r 0 0 w
f 1 4 e
f 1 3 n
h 1 3 w
r 1 4 n
t 0 2 w
h 1 1 n
h 1 4 e
2 2

7 3
12
f 4 0 s
r 0 1 w
r 6 2 s
h 0 0 n
f 5 0 e
f 5 0 n
f 6 2 s
h 6 2 n
h 5 2 e
f 3 0 n
h 1 1 w
h 4 2 n
19 4

3 6
10
t 0 0 e
t 1 3 e
r 1 4 e
r 2 4 s
r 0 2 s
f 0 2 w
r 2 5 e
h 2 4 w
r 2 2 n
f 2 2 e
1 1

6 8
15
r 3 7 s
h 2 6 e
f 2 1 w
t 1 4 s
r 1 7 s
t 1 1 n
h 0 4 n
f 1 2 n
f 4 5 s
r 5 0 n
t 4 1 e
h 0 5 w
f 1 0 s
t 5 1 w
h 4 2 e
5 3

4 6
20
f 0 2 s
f 2 2 s
h 3 3 e
r 1 0 n
f 3 4 s
t 1 0 e
t 2 2 e
r 0 1 n
f 1 4 e
h 2 5 n
f 3 1 w
h 2 0 n
t 3 0 n
t 1 0 e
r 2 3 w
r 2 5 n
r 1 0 w
t 1 3 n
h 1 5 n
t 2 2 s
11 9

4 5
7
h 1 3 s
t 3 2 n
h 1 2 n
t 2 3 e
t 3 2 e
t 1 1 n
h 3 2 e
6 5

3 5
9
f 2 1 w
f 0 2 e
r 2 3 n
r 0 3 e
t 0 3 n
h 0 1 w
f 2 1 w
h 0 1 s
f 2 2 e
3 3

3 4
12
r 0 2 e
f 2 2 s
t 2 0 n
f 2 2 s
h 0 1 n
t 1 0 s
h 2 1 w
f 2 3 s
h 2 0 e
f 2 0 s
r 1 0 n
h 1 0 w
5 4
