*** Darwin 11x15 ***
Turn = 0.
  012345678901234
0 ...............
1 ..............h
2 ...............
3 .....r.........
4 ...............
5 ...............
6 ..............r
7 ...........t...
8 ...............
9 ...............
0 f...........t..

Turn = 5.
  012345678901234
0 ......r........
1 ..............h
2 ...............
3 ...............
4 ...............
5 ...............
6 .........r.....
7 ...........t...
8 ...............
9 ...............
0 f...........t..

Turn = 10.
  012345678901234
0 ...........r...
1 ..............h
2 ...............
3 ...............
4 ...............
5 ...............
6 ....r..........
7 ...........t...
8 ...............
9 ...............
0 f...........t..

*** Darwin 18x11 ***
Turn = 0.
  01234567890
0 ...........
1 ...........
2 ...........
3 .t.........
4 ...........
5 ..........h
6 ...........
7 ...........
8 t..........
9 ...........
0 ...........
1 .h.........
2 ...........
3 ...........
4 ...........
5 ...........
6 ...........
7 ...........

Turn = 5.
  01234567890
0 ...........
1 ...........
2 ...........
3 .t.........
4 ...........
5 ...........
6 ...........
7 ...........
8 t..........
9 ...........
0 ..........h
1 ......h....
2 ...........
3 ...........
4 ...........
5 ...........
6 ...........
7 ...........

Turn = 10.
  01234567890
0 ...........
1 ...........
2 ...........
3 .t.........
4 ...........
5 ...........
6 ...........
7 ...........
8 t..........
9 ...........
0 ...........
1 ..........h
2 ...........
3 ...........
4 ...........
5 ..........h
6 ...........
7 ...........

*** Darwin 2x9 ***
Turn = 0.
  012345678
0 .t.......
1 .f...fhfh

Turn = 5.
  012345678
0 .t.......
1 .t...fhfh

Turn = 10.
  012345678
0 .t.......
1 .t...fhfh

*** Darwin 8x2 ***
Turn = 0.
  01
0 h.
1 t.
2 ..
3 ..
4 .f
5 h.
6 ..
7 h.

Turn = 5.
  01
0 t.
1 t.
2 h.
3 ..
4 .f
5 ..
6 ..
7 h.

Turn = 10.
  01
0 t.
1 t.
2 t.
3 ..
4 .f
5 ..
6 ..
7 h.

*** Darwin 12x3 ***
Turn = 0.
  012
0 ...
1 f..
2 h..
3 ..h
4 ...
5 ...
6 ...
7 ...
8 fh.
9 t.h
0 .r.
1 ..t

Turn = 5.
  012
0 ..h
1 f..
2 ...
3 ...
4 ...
5 ...
6 ...
7 h..
8 th.
9 t.h
0 t..
1 ..t

Turn = 10.
  012
0 ..h
1 f..
2 ...
3 ...
4 ...
5 ...
6 ...
7 t..
8 tt.
9 t.h
0 t..
1 ..t

*** Darwin 15x10 ***
Turn = 0.
  0123456789
0 ...t......
1 ..........
2 ........t.
3 .....r....
4 ..........
5 ..........
6 ...t.r....
7 ..........
8 ..........
9 ..........
0 ..........
1 ..........
2 .........h
3 ..........
4 ..h.......

Turn = 5.
  0123456789
0 ...t......
1 ..........
2 ........t.
3 r.........
4 ..........
5 ..........
6 ...t......
7 .........h
8 ..........
9 ..........
0 ..........
1 .....r....
2 ..........
3 ..........
4 .......h..

Turn = 10.
  0123456789
0 r..t......
1 ..........
2 ........th
3 ..........
4 ..........
5 ..........
6 ...t......
7 ..........
8 ..........
9 ..........
0 ..........
1 ..........
2 ..........
3 ..........
4 ......r..h

*** Darwin 19x5 ***
Turn = 0.
  01234
0 .....
1 .....
2 .....
3 .....
4 ...r.
5 .....
6 .....
7 .....
8 .....
9 .....
0 .....
1 .....
2 .....
3 .....
4 .....
5 .....
6 .....
7 .....
8 .....

Turn = 5.
  01234
0 ...r.
1 .....
2 .....
3 .....
4 .....
5 .....
6 .....
7 .....
8 .....
9 .....
0 .....
1 .....
2 .....
3 .....
4 .....
5 .....
6 .....
7 .....
8 .....

Turn = 10.
  01234
0 .....
1 ....r
2 .....
3 .....
4 .....
5 .....
6 .....
7 .....
8 .....
9 .....
0 .....
1 .....
2 .....
3 .....
4 .....
5 .....
6 .....
7 .....
8 .....

*** Darwin 2x10 ***
Turn = 0.
  0123456789
0 ..........
1 ....r.....

Turn = 5.
  0123456789
0 ..........
1 r.........

Turn = 10.
  0123456789
0 .r........
1 ..........

*** Darwin 18x12 ***
Turn = 0.
  012345678901
0 ............
1 ............
2 ............
3 ............
4 ............
5 ..r.........
6 .....hr.....
7 ............
8 ........t...
9 ........r...
0 ............
1 .......f....
2 ............
3 ............
4 ........h...
5 ..rf........
6 ............
7 h...........

Turn = 5.
  012345678901
0 ............
1 ............
2 ............
3 r...........
4 ............
5 ............
6 .........h.r
7 ............
8 ........t...
9 ...r....h...
0 ...r........
1 .......f....
2 ............
3 ............
4 ............
5 ......r.....
6 ............
7 h...........

Turn = 10.
  012345678901
0 .r..........
1 ............
2 ...........r
3 ............
4 ............
5 ...r........
6 ...........h
7 ............
8 r.......t...
9 ........t...
0 ............
1 .......f....
2 ............
3 ............
4 ............
5 ...........r
6 ............
7 h...........

*** Darwin 3x20 ***
Turn = 0.
  01234567890123456789
0 ..........r.........
1 .....r..............
2 ..t.................

Turn = 5.
  01234567890123456789
0 ..............r.....
1 ..........r.........
2 ..t.................

Turn = 10.
  01234567890123456789
0 ...................r
1 ...............r....
2 ..t.................

*** Darwin 16x18 ***
Turn = 0.
  012345678901234567
0 .......h..........
1 ..................
2 ..............r...
3 ..................
4 ..................
5 ....h............t
6 ..................
7 ...........t....h.
8 ..................
9 ..................
0 ......r...........
1 ..................
2 ..................
3 ..................
4 ..................
5 ...........h......

Turn = 5.
  012345678901234567
0 ..h.h...........r.
1 ..................
2 ..................
3 ..................
4 ..................
5 ......r..........t
6 ..................
7 ...........th.....
8 ..................
9 ..................
0 ..................
1 ..................
2 ..................
3 ..................
4 ..................
5 ...........h......

Turn = 10.
  012345678901234567
0 h...h.r...........
1 .................r
2 ..................
3 ..................
4 ..................
5 .................t
6 ..................
7 ...........tt.....
8 ..................
9 ..................
0 ..................
1 ..................
2 ..................
3 ..................
4 ..................
5 ...........h......

*** Darwin 15x7 ***
Turn = 0.
  0123456
0 .......
1 .......
2 ......t
3 .......
4 .......
5 .......
6 .......
7 .......
8 .......
9 .......
0 .......
1 .......
2 .......
3 .......
4 .......

Turn = 5.
  0123456
0 .......
1 .......
2 ......t
3 .......
4 .......
5 .......
6 .......
7 .......
8 .......
9 .......
0 .......
1 .......
2 .......
3 .......
4 .......

Turn = 10.
  0123456
0 .......
1 .......
2 ......t
3 .......
4 .......
5 .......
6 .......
7 .......
8 .......
9 .......
0 .......
1 .......
2 .......
3 .......
4 .......

*** Darwin 2x1 ***
Turn = 0.
  0
0 .
1 r

Turn = 5.
  0
0 r
1 .

Turn = 10.
  0
0 .
1 r

*** Darwin 4x13 ***
Turn = 0.
  0123456789012
0 .............
1 .............
2 .............
3 .f...........

Turn = 5.
  0123456789012
0 .............
1 .............
2 .............
3 .f...........

Turn = 10.
  0123456789012
0 .............
1 .............
2 .............
3 .f...........

*** Darwin 8x18 ***
Turn = 0.
  012345678901234567
0 .h................
1 ..................
2 ..................
3 ..................
4 ..................
5 ..................
6 ..................
7 ..t...............

Turn = 5.
  012345678901234567
0 h.................
1 ..................
2 ..................
3 ..................
4 ..................
5 ..................
6 ..................
7 ..t...............

Turn = 10.
  012345678901234567
0 h.................
1 ..................
2 ..................
3 ..................
4 ..................
5 ..................
6 ..................
7 ..t...............

*** Darwin 20x4 ***
Turn = 0.
  0123
0 ..r.
1 ....
2 t...
3 ....
4 ....
5 ....
6 ....
7 ....
8 .r..
9 ....
0 ....
1 ....
2 ...h
3 ....
4 ....
5 ....
6 ....
7 ....
8 ....
9 .h..

Turn = 5.
  0123
0 ....
1 ....
2 t...
3 ....
4 ....
5 ..r.
6 ....
7 ....
8 ....
9 ....
0 ...r
1 ....
2 ....
3 ....
4 .h..
5 ....
6 ....
7 ...h
8 ....
9 ....

Turn = 10.
  0123
0 ....
1 ....
2 t...
3 ....
4 ....
5 ....
6 ....
7 ....
8 ....
9 .h..
0 ..r.
1 ....
2 ....
3 ....
4 ....
5 ...r
6 ....
7 ....
8 ....
9 ...h

*** Darwin 15x4 ***
Turn = 0.
  0123
0 ...r
1 ....
2 ....
3 ...r
4 ....
5 ....
6 ....
7 ....
8 ....
9 .f..
0 ....
1 ....
2 ....
3 ....
4 t...

Turn = 5.
  0123
0 ....
1 ...r
2 ....
3 ....
4 ....
5 ....
6 ....
7 ....
8 ...r
9 .f..
0 ....
1 ....
2 ....
3 ....
4 t...

Turn = 10.
  0123
0 ....
1 ....
2 ....
3 ....
4 ....
5 ....
6 ...r
7 ....
8 ....
9 .f..
0 ....
1 ....
2 ....
3 ...r
4 t...

*** Darwin 9x1 ***
Turn = 0.
  0
0 .
1 .
2 .
3 r
4 .
5 r
6 .
7 .
8 .

Turn = 5.
  0
0 .
1 .
2 .
3 .
4 .
5 .
6 r
7 .
8 r

Turn = 10.
  0
0 .
1 .
2 .
3 .
4 .
5 .
6 .
7 r
8 r

*** Darwin 5x13 ***
Turn = 0.
  0123456789012
0 ......th.....
1 ..........f..
2 .r...........
3 .f.....r.....
4 ...h..h.....r

Turn = 5.
  0123456789012
0 ......r......
1 ......rr..f..
2 .........r...
3 r............
4 ....r...rr...

Turn = 10.
  0123456789012
0 .r...rr.rr...
1 ..........f.r
2 r............
3 .............
4 .........r...

*** Darwin 19x16 ***
Turn = 0.
  0123456789012345
0 ................
1 ...h............
2 ................
3 ........h.......
4 ................
5 ................
6 ................
7 ...........r....
8 ................
9 ................
0 ................
1 .......t........
2 ................
3 ................
4 ................
5 ................
6 ................
7 ................
8 ................

Turn = 5.
  0123456789012345
0 ...h............
1 ................
2 ................
3 ................
4 ................
5 ................
6 ................
7 ...............r
8 ........h.......
9 ................
0 ................
1 .......t........
2 ................
3 ................
4 ................
5 ................
6 ................
7 ................
8 ................

Turn = 10.
  0123456789012345
0 ...h............
1 ................
2 ................
3 ................
4 ................
5 ................
6 ................
7 ................
8 ................
9 ................
0 ................
1 .......t........
2 ...............r
3 ........h.......
4 ................
5 ................
6 ................
7 ................
8 ................

*** Darwin 12x17 ***
Turn = 0.
  01234567890123456
0 .................
1 .................
2 .................
3 .................
4 .................
5 .................
6 .................
7 .................
8 ..........t......
9 .................
0 .................
1 .................

Turn = 5.
  01234567890123456
0 .................
1 .................
2 .................
3 .................
4 .................
5 .................
6 .................
7 .................
8 ..........t......
9 .................
0 .................
1 .................

Turn = 10.
  01234567890123456
0 .................
1 .................
2 .................
3 .................
4 .................
5 .................
6 .................
7 .................
8 ..........t......
9 .................
0 .................
1 .................

*** Darwin 4x13 ***
Turn = 0.
  0123456789012
0 h............
1 .............
2 ............r
3 ............t

Turn = 5.
  0123456789012
0 h............
1 .............
2 .......r.....
3 ............t

Turn = 10.
  0123456789012
0 h............
1 .............
2 ..r..........
3 ............t

*** Darwin 20x6 ***
Turn = 0.
  012345
0 ......
1 .r....
2 ......
3 ......
4 ......
5 ......
6 ....t.
7 ......
8 ......
9 ..f...
0 ......
1 .....r
2 ..t...
3 ..f.f.
4 ......
5 ....t.
6 ......
7 ......
8 ..h...
9 ......

Turn = 5.
  012345
0 ......
1 ......
2 ......
3 ......
4 ......
5 ......
6 .r..t.
7 ......
8 ......
9 ..f...
0 ......
1 r.....
2 ..t...
3 ..t.f.
4 ......
5 ....t.
6 ......
7 ......
8 .....h
9 ......

Turn = 10.
  012345
0 ......
1 ......
2 ......
3 ......
4 ......
5 ......
6 ....t.
7 r.....
8 ......
9 ..f...
0 ......
1 .r....
2 ..t...
3 ..t.f.
4 ......
5 ....t.
6 ......
7 ......
8 .....h
9 ......

*** Darwin 14x1 ***
Turn = 0.
  0
0 .
1 .
2 t
3 .
4 h
5 r
6 r
7 .
8 .
9 .
0 t
1 .
2 .
3 r

Turn = 5.
  0
0 .
1 .
2 t
3 r
4 r
5 r
6 .
7 .
8 .
9 .
0 r
1 r
2 .
3 .

Turn = 10.
  0
0 .
1 .
2 t
3 t
4 t
5 .
6 .
7 .
8 .
9 r
0 .
1 r
2 .
3 r

*** Darwin 14x14 ***
Turn = 0.
  01234567890123
0 ..............
1 ..............
2 ..............
3 ..............
4 ..............
5 ..............
6 ..........t...
7 ..............
8 ..............
9 ..............
0 ..............
1 ..............
2 ...........t..
3 ..............

Turn = 5.
  01234567890123
0 ..............
1 ..............
2 ..............
3 ..............
4 ..............
5 ..............
6 ..........t...
7 ..............
8 ..............
9 ..............
0 ..............
1 ..............
2 ...........t..
3 ..............

Turn = 10.
  01234567890123
0 ..............
1 ..............
2 ..............
3 ..............
4 ..............
5 ..............
6 ..........t...
7 ..............
8 ..............
9 ..............
0 ..............
1 ..............
2 ...........t..
3 ..............
